,date,city,rent,product
0,2022-01-01,Tunceli,11,1043
1,2022-01-02,Bolu,9,1861
2,2022-01-03,Sakarya,5,1180
3,2022-01-04,Balıkesir,15,1311
4,2022-01-05,Balıkesir,17,1308
5,2022-01-06,Şırnak,3,1815
6,2022-01-07,Şanlıurfa,6,1485
7,2022-01-08,Düzce,12,1094
8,2022-01-09,Yalova,1,1436
9,2022-01-10,Nevşehir,1,1850
10,2022-01-11,Sinop,16,1928
11,2022-01-12,Ordu,11,1638
12,2022-01-13,Yozgat,4,1436
13,2022-01-14,Trabzon,4,1690
14,2022-01-15,Siirt,15,1759
15,2022-01-16,İstanbul,9,1757
16,2022-01-17,Afyon,5,1289
17,2022-01-18,Konya,16,1433
18,2022-01-19,Karabük,16,1171
19,2022-01-20,Balıkesir,7,1297
20,2022-01-21,Niğde,17,1370
21,2022-01-22,Kırşehir,16,1179
22,2022-01-23,İstanbul,6,1107
23,2022-01-24,Kırklareli,8,1849
24,2022-01-25,Trabzon,9,1604
25,2022-01-26,Bayburt,13,1159
26,2022-01-27,Afyon,9,1012
27,2022-01-28,Karaman,16,1244
28,2022-01-29,Artvin,2,1324
29,2022-01-30,Amasya,5,1036
30,2022-01-31,Erzurum,13,1764
31,2022-02-01,Çanakkale,1,1076
32,2022-02-02,İstanbul,11,1759
33,2022-02-03,Gümüşhane,3,1780
34,2022-02-04,Kars,17,1182
35,2022-02-05,Nevşehir,8,1484
36,2022-02-06,Kilis,13,1161
37,2022-02-07,Uşak,4,1153
38,2022-02-08,İzmir,12,1266
39,2022-02-09,Konya,13,1427
40,2022-02-10,Ardahan,11,1458
41,2022-02-11,Kırşehir,8,1470
42,2022-02-12,Bartın,17,1387
43,2022-02-13,Ağrı,9,1187
44,2022-02-14,Bartın,11,1832
45,2022-02-15,Hakkari,4,1093
46,2022-02-16,Hatay,12,1369
47,2022-02-17,Gümüşhane,6,1542
48,2022-02-18,Diyarbakır,9,1955
49,2022-02-19,Erzurum,7,1019
50,2022-02-20,Bingöl,3,1514
51,2022-02-21,Bingöl,4,1526
52,2022-02-22,Amasya,17,1835
53,2022-02-23,Afyon,13,1669
54,2022-02-24,Niğde,3,1623
55,2022-02-25,Bursa,17,1914
56,2022-02-26,Tokat,15,1958
57,2022-02-27,Kilis,8,1736
58,2022-02-28,Yalova,11,1921
59,2022-03-01,Kilis,17,1593
60,2022-03-02,Erzincan,6,1989
61,2022-03-03,İzmir,8,1939
62,2022-03-04,Hakkari,11,1221
63,2022-03-05,Erzurum,14,1379
64,2022-03-06,Çanakkale,10,1687
65,2022-03-07,Burdur,15,1678
66,2022-03-08,Tunceli,4,1284
67,2022-03-09,Karaman,7,1204
68,2022-03-10,Antalya,7,1610
69,2022-03-11,Kayseri,8,1430
70,2022-03-12,Tekirdağ,9,1913
71,2022-03-13,Düzce,9,1635
72,2022-03-14,Hakkari,7,1577
73,2022-03-15,Çorum,8,1222
74,2022-03-16,Osmaniye,10,1627
75,2022-03-17,Eskişehir,10,1783
76,2022-03-18,Kocaeli,1,1888
77,2022-03-19,Düzce,9,1964
78,2022-03-20,Balıkesir,13,1821
79,2022-03-21,Amasya,13,1046
80,2022-03-22,Yalova,15,1625
81,2022-03-23,Sivas,2,1772
82,2022-03-24,Diyarbakır,11,1848
83,2022-03-25,Giresun,4,1060
84,2022-03-26,Diyarbakır,9,1465
85,2022-03-27,Kahramanmaraş,14,1394
86,2022-03-28,Çankırı,4,1896
87,2022-03-29,Düzce,2,1675
88,2022-03-30,Van,16,1760
89,2022-03-31,Bartın,11,1808
90,2022-04-01,Antalya,10,1227
91,2022-04-02,Kırklareli,3,1757
92,2022-04-03,Çankırı,12,1483
93,2022-04-04,Tunceli,1,1108
94,2022-04-05,Kars,8,1690
95,2022-04-06,Yozgat,3,1828
96,2022-04-07,Çankırı,14,1492
97,2022-04-08,Muş,5,1128
98,2022-04-09,Batman,16,1958
99,2022-04-10,Nevşehir,11,1435
100,2022-04-11,Ardahan,7,1723
101,2022-04-12,Adana,4,1204
102,2022-04-13,Tunceli,8,1928
103,2022-04-14,Kastamonu,17,1300
104,2022-04-15,Uşak,3,1024
105,2022-04-16,Ağrı,11,1514
106,2022-04-17,Ordu,8,1538
107,2022-04-18,İzmir,17,1440
108,2022-04-19,İzmir,4,1262
109,2022-04-20,Şırnak,12,1290
110,2022-04-21,Niğde,17,1702
111,2022-04-22,Iğdır,10,1496
112,2022-04-23,Osmaniye,12,1473
113,2022-04-24,Ordu,2,1878
114,2022-04-25,İstanbul,13,1286
115,2022-04-26,Çankırı,8,1308
116,2022-04-27,Gümüşhane,10,1277
117,2022-04-28,Ankara,14,1211
118,2022-04-29,Bitlis,1,1828
119,2022-04-30,Sakarya,9,1389
120,2022-05-01,Gümüşhane,4,1513
121,2022-05-02,Çankırı,3,1260
122,2022-05-03,Bursa,14,1013
123,2022-05-04,Manisa,13,1432
124,2022-05-05,Ordu,3,1055
125,2022-05-06,Edirne,8,1287
126,2022-05-07,Şırnak,8,1463
127,2022-05-08,Kahramanmaraş,16,1387
128,2022-05-09,Çorum,8,1519
129,2022-05-10,Çanakkale,3,1844
130,2022-05-11,Giresun,15,1843
131,2022-05-12,Düzce,6,1846
132,2022-05-13,Hatay,11,1365
133,2022-05-14,Trabzon,15,1979
134,2022-05-15,Malatya,7,1315
135,2022-05-16,Ordu,11,1586
136,2022-05-17,Giresun,3,1513
137,2022-05-18,Trabzon,12,1258
138,2022-05-19,İzmir,6,1549
139,2022-05-20,Artvin,12,1593
140,2022-05-21,Manisa,13,1254
141,2022-05-22,Sinop,14,1054
142,2022-05-23,Kırıkkale,9,1969
143,2022-05-24,Kars,11,1404
144,2022-05-25,Kırklareli,17,1247
145,2022-05-26,Kars,14,1705
146,2022-05-27,Antalya,10,1608
147,2022-05-28,Ardahan,12,1210
148,2022-05-29,Hakkari,12,1069
149,2022-05-30,Giresun,11,1267
150,2022-05-31,Konya,14,1315
151,2022-06-01,İzmir,2,1738
152,2022-06-02,Nevşehir,5,1485
153,2022-06-03,Zonguldak,17,1415
154,2022-06-04,Antalya,15,1384
155,2022-06-05,Aydın,16,1827
156,2022-06-06,Samsun,6,1159
157,2022-06-07,Denizli,14,1639
158,2022-06-08,Bilecik,3,1035
159,2022-06-09,Karabük,12,1396
160,2022-06-10,Kocaeli,13,1260
161,2022-06-11,Giresun,5,1896
162,2022-06-12,İstanbul,13,1518
163,2022-06-13,Tekirdağ,17,1335
164,2022-06-14,Mardin,4,1821
165,2022-06-15,Elazığ,17,1648
166,2022-06-16,Elazığ,8,1915
167,2022-06-17,Manisa,5,1842
168,2022-06-18,Kütahya,15,1722
169,2022-06-19,Erzurum,16,1902
170,2022-06-20,Karabük,10,1393
171,2022-06-21,Rize,8,1336
172,2022-06-22,Burdur,11,1744
173,2022-06-23,İzmir,17,1654
174,2022-06-24,Gümüşhane,4,1605
175,2022-06-25,Burdur,6,1670
176,2022-06-26,Bilecik,17,1039
177,2022-06-27,Ordu,15,1862
178,2022-06-28,Edirne,15,1102
179,2022-06-29,İzmir,10,1118
180,2022-06-30,Diyarbakır,16,1032
181,2022-07-01,Kırşehir,4,1060
182,2022-07-02,Hakkari,11,1526
183,2022-07-03,Bingöl,2,1270
184,2022-07-04,Batman,10,1189
185,2022-07-05,Bartın,13,1519
186,2022-07-06,Yozgat,7,1686
187,2022-07-07,Balıkesir,11,1227
188,2022-07-08,Hatay,15,1046
189,2022-07-09,Konya,16,1133
190,2022-07-10,Erzurum,14,1487
191,2022-07-11,Yalova,4,1221
192,2022-07-12,Siirt,14,1615
193,2022-07-13,Sakarya,7,1854
194,2022-07-14,Bursa,8,1597
195,2022-07-15,Tekirdağ,14,1853
196,2022-07-16,Iğdır,10,1428
197,2022-07-17,Ankara,15,1099
198,2022-07-18,Aydın,4,1161
199,2022-07-19,Afyon,17,1692
200,2022-07-20,Şırnak,1,1770
201,2022-07-21,Aydın,8,1290
202,2022-07-22,Mardin,10,1481
203,2022-07-23,Hakkari,11,1646
204,2022-07-24,Muğla,14,1406
205,2022-07-25,Bartın,6,1083
206,2022-07-26,Bilecik,12,1232
207,2022-07-27,Eskişehir,3,1943
208,2022-07-28,Mardin,2,1560
209,2022-07-29,Sakarya,2,1326
210,2022-07-30,Kırklareli,10,1819
211,2022-07-31,Sivas,15,1068
212,2022-08-01,Muğla,7,1389
213,2022-08-02,Sinop,12,1616
214,2022-08-03,Tekirdağ,8,1694
215,2022-08-04,Osmaniye,2,1332
216,2022-08-05,Elazığ,11,1316
217,2022-08-06,Siirt,14,1165
218,2022-08-07,Düzce,14,1309
219,2022-08-08,Bitlis,9,1056
220,2022-08-09,Çorum,15,1499
221,2022-08-10,Uşak,14,1744
222,2022-08-11,Van,9,1736
223,2022-08-12,Erzincan,17,1312
224,2022-08-13,Hatay,3,1383
225,2022-08-14,Şırnak,7,1337
226,2022-08-15,Afyon,14,1583
227,2022-08-16,Kayseri,15,1640
228,2022-08-17,Diyarbakır,16,1904
229,2022-08-18,Ankara,13,1157
230,2022-08-19,Karabük,17,1921
231,2022-08-20,Aksaray,5,1469
232,2022-08-21,Bitlis,9,1692
233,2022-08-22,Edirne,9,1149
234,2022-08-23,Aksaray,16,1558
235,2022-08-24,Mardin,5,1823
236,2022-08-25,Karaman,6,1537
237,2022-08-26,Kahramanmaraş,12,1202
238,2022-08-27,Bitlis,7,1306
239,2022-08-28,Artvin,15,1598
240,2022-08-29,Afyon,8,1454
241,2022-08-30,Siirt,6,1571
242,2022-08-31,Bolu,16,1043
243,2022-09-01,Konya,15,1589
244,2022-09-02,Isparta,12,1318
245,2022-09-03,Denizli,4,1738
246,2022-09-04,Adana,5,1517
247,2022-09-05,Aydın,2,1273
248,2022-09-06,Kayseri,16,1182
249,2022-09-07,Kırıkkale,4,1735
250,2022-09-08,Rize,4,1326
251,2022-09-09,Bartın,7,1893
252,2022-09-10,Ankara,11,1601
253,2022-09-11,Denizli,15,1966
254,2022-09-12,Adıyaman,1,1984
255,2022-09-13,Çankırı,6,1538
256,2022-09-14,Samsun,1,1369
257,2022-09-15,Sinop,13,1221
258,2022-09-16,Adıyaman,16,1492
259,2022-09-17,Erzurum,9,1757
260,2022-09-18,Nevşehir,9,1083
261,2022-09-19,Kırşehir,2,1061
262,2022-09-20,Bilecik,7,1628
263,2022-09-21,Kars,6,1769
264,2022-09-22,Tekirdağ,13,1988
265,2022-09-23,Antalya,16,1555
266,2022-09-24,Çanakkale,9,1965
267,2022-09-25,İstanbul,6,1740
268,2022-09-26,İçel (Mersin),1,1623
269,2022-09-27,Konya,16,1194
270,2022-09-28,Balıkesir,4,1359
271,2022-09-29,İzmir,7,1368
272,2022-09-30,Eskişehir,12,1390
273,2022-10-01,Batman,7,1967
274,2022-10-02,Karaman,3,1760
275,2022-10-03,Amasya,12,1912
276,2022-10-04,Nevşehir,8,1228
277,2022-10-05,Kars,9,1490
278,2022-10-06,Bursa,15,1548
279,2022-10-07,Kahramanmaraş,16,1863
280,2022-10-08,Antalya,16,1339
281,2022-10-09,Kütahya,10,1538
282,2022-10-10,Düzce,14,1747
283,2022-10-11,Uşak,1,1104
284,2022-10-12,Aydın,12,1756
285,2022-10-13,İstanbul,8,1585
286,2022-10-14,Yalova,3,1680
287,2022-10-15,Kırklareli,16,1008
288,2022-10-16,Manisa,3,1013
289,2022-10-17,Konya,10,1803
290,2022-10-18,Bursa,5,1426
291,2022-10-19,Aksaray,10,1571
292,2022-10-20,Amasya,13,1711
293,2022-10-21,Balıkesir,2,1810
294,2022-10-22,Kırklareli,16,1073
295,2022-10-23,Adıyaman,16,1828
296,2022-10-24,Samsun,6,1826
297,2022-10-25,Isparta,10,1819
298,2022-10-26,Trabzon,6,1393
299,2022-10-27,Düzce,2,1776
300,2022-10-28,Zonguldak,2,1072
301,2022-10-29,Giresun,3,1019
302,2022-10-30,Bursa,8,1816
303,2022-10-31,Bingöl,7,1746
304,2022-11-01,Iğdır,10,1464
305,2022-11-02,Isparta,17,1098
306,2022-11-03,İzmir,17,1901
307,2022-11-04,Muğla,2,1340
308,2022-11-05,Bayburt,6,1037
309,2022-11-06,Kayseri,14,1456
310,2022-11-07,Kars,11,1908
311,2022-11-08,Isparta,8,1534
312,2022-11-09,Manisa,3,1055
313,2022-11-10,Kastamonu,2,1103
314,2022-11-11,Mardin,7,1824
315,2022-11-12,Muş,17,1788
316,2022-11-13,Osmaniye,5,1903
317,2022-11-14,Çanakkale,2,1924
318,2022-11-15,Hatay,9,1503
319,2022-11-16,Kırşehir,13,1749
320,2022-11-17,Batman,13,1796
321,2022-11-18,Ardahan,1,1182
322,2022-11-19,Karaman,15,1706
323,2022-11-20,Hakkari,11,1348
324,2022-11-21,Tunceli,2,1687
325,2022-11-22,Bilecik,7,1949
326,2022-11-23,Balıkesir,5,1415
327,2022-11-24,Van,6,1401
328,2022-11-25,Tekirdağ,14,1538
329,2022-11-26,Erzurum,9,1732
330,2022-11-27,Kahramanmaraş,2,1964
331,2022-11-28,Çorum,16,1703
332,2022-11-29,Iğdır,4,1117
333,2022-11-30,Kırıkkale,11,1472
334,2022-12-01,Mardin,2,1137
335,2022-12-02,Adıyaman,13,1972
336,2022-12-03,Iğdır,5,1575
337,2022-12-04,Hakkari,11,1641
338,2022-12-05,Gümüşhane,17,1316
339,2022-12-06,Aydın,8,1923
340,2022-12-07,Muş,10,1234
341,2022-12-08,Isparta,9,1799
342,2022-12-09,Sinop,5,1297
343,2022-12-10,Osmaniye,9,1241
344,2022-12-11,Artvin,1,1737
345,2022-12-12,Şanlıurfa,4,1521
346,2022-12-13,Osmaniye,5,1607
347,2022-12-14,Afyon,16,1973
348,2022-12-15,İçel (Mersin),8,1019
349,2022-12-16,Mardin,4,1318
350,2022-12-17,Amasya,3,1205
351,2022-12-18,Kırıkkale,16,1072
352,2022-12-19,Bilecik,8,1694
353,2022-12-20,Kilis,3,1601
354,2022-12-21,Edirne,14,1494
355,2022-12-22,Muş,8,1287
356,2022-12-23,Diyarbakır,12,1907
357,2022-12-24,Edirne,7,1791
358,2022-12-25,Iğdır,12,1149
359,2022-12-26,Kayseri,8,1406
360,2022-12-27,Kars,3,1030
361,2022-12-28,Çorum,14,1326
362,2022-12-29,Malatya,5,1368
363,2022-12-30,Batman,14,1642
